{
    "uniqueModClassName":"data.scripts.world.diableavionicsGen",
    "playableFaction":true,
    "corvusCompatible":true,

    "crewExpereinceLevelIncreaseChance":0.0,
    "baseFleetCostMultiplier":1.0,

    "customRebelFaction":"",
    "customRebelFleetId":"",
    "rebelFleetSuffix":"Dissidents",

    "positiveDiplomacyExtra":0,
    "negativeDiplomacyExtra":0,
    "factionsLiked":["SCY"],
    "factionsDisliked":["hegemony","sindrian_diktat","luddic_path","interstellarimperium"],
    "morality":"amoral",
    
    "alignments":{
        "corporate":0.5,
        "technocratic":0.5,
        "militarist":1,
        "diplomatic":-1,
    },
    
    "miningVariantsOrWings":["diableavionics_laminar_miner"],
    "customStations":["diableavionics_station_eclipse","diableavionics_station_shadow","diableavionics_station_ressource"],
    
    "startShipsSolo":["diableavionics_vapor_standard"],
    "startShipsCombatSmall":["diableavionics_calm_mixed", "diableavionics_vapor_attack", "diableavionics_draft_standard"],
    "startShipsTradeSmall":["diableavionics_stratus_standard", "diableavionics_draft_support", "diableavionics_laminar_miner"],
    "startShipsCombatLarge":["diableavionics_gust_assault", "diableavionics_derecho_kite", "diableavionics_draft_support"],
    "startShipsTradeLarge":["diableavionics_rime_breach", "diableavionics_vapor_attack", "diableavionics_draft_standard"],
}