{
    "uniqueModClassName":"data.scripts.ExigencyModPlugin",
    "playableFaction":true,
    "pirateFaction":true,
    "noHomeworld":true,
    "corvusCompatible":true,

    "crewExpereinceLevelIncreaseChance":0.0,
    "baseFleetCostMultiplier":1.0,

    "customRebelFaction":"",
    "customRebelFleetId":"",
    "rebelFleetSuffix":"Splinter Group",

    "startRelationships":{ "exigency": -0.8 },
    "maxRelationships":{ "exigency":-0.76 },
    "diplomacyPositiveChance":{ "exigency":0 },
    "diplomacyNegativeChance":{ "exigency":0 },
    
    "alignments":{
        "technocratic":0.5
    },
    
    "freeMarket":true,
    
    "startShipsSolo":["exipirated_rauwel_Standard"],
    "startShipsCombatSmall":["exipirated_azryel_Standard", "exigency_yria_Firesupport", "hound_d_pirates_Standard"],
    "startShipsTradeSmall":["mule_d_pirates_Standard", "exigency_yria_Disruptor", "shepherd_Frontier"],
    "startShipsCombatLarge":["exipirated_harinder_Standard", "exipirated_azryel_Support", "exigency_compactfrigate_Recon"],
}