{
    "uniqueModClassName":"data.scripts.NCModPlugin",
    "playableFaction":true,
    "corvusCompatible":true,

    "crewExpereinceLevelIncreaseChance":0.0,
    "baseFleetCostMultiplier":1.1,

    "customRebelFaction":"",
    "customRebelFleetId":"",
    "rebelFleetSuffix":"Dissidents",

    "positiveDiplomacyExtra":0,
    "negativeDiplomacyExtra":0,
    "factionsLiked":[],
    "factionsDisliked":[],	#tritachyon has too many people picking on it already

    "alignments":{
        "corporate":1,
        "technocratic":1,
    },
    
    "customStations":["neutrino_station_powerplant", "neutrino_station_largeprocessing", "neutrino_station_experimental"],
    
    "startShipsSolo":["neutrino_singularity_standard"],
    "startShipsCombatSmall":["neutrino_hacksaw_standard", "neutrino_singularity_updated", "neutrino_relativity_support"],
    "startShipsTradeSmall":["neutrino_piledriverC_standard", "neutrino_singularity_updated", "neutrino_polarity_standard"],
    "startShipsCombatLarge":["neutrino_grinder_assault", "neutrino_hacksaw_standard", "neutrino_singularity_updated", "neutrino_relativity_support"],
    "startShipsTradeLarge":["neutrino_grinder_assault", "neutrino_piledriverC_standard", "neutrino_polarity_standard"],
}